<?xml version="1.0" encoding="UTF-8"?>
<svg width="70px" height="70px" viewBox="0 0 70 70" version="1.1" xmlns="http://www.w3.org/2000/svg" xmlns:xlink="http://www.w3.org/1999/xlink">
    <!-- Generator: Sketch 64 (93537) - https://sketch.com -->
    <title>c-cleaning</title>
    <desc>Created with Sketch.</desc>
    <g id="c-cleaning" stroke="none" stroke-width="1" fill="none" fill-rule="evenodd">
        <g id="001-pressure-washer" transform="translate(5.000000, 5.000000)" fill-rule="nonzero">
            <path d="M9.64210954,41.9962869 L9.64210954,53.5152743 C9.64210954,54.0862015 10.1049377,54.5490295 10.675865,54.5490295 L30.7602532,54.5490295 C31.3311804,54.5490295 31.7940086,54.0862015 31.7940086,53.5152743 L31.7940086,41.9962869 C31.7940086,41.7220699 31.6853024,41.4590391 31.4914017,41.2651384 C31.297501,41.0712376 31.0344702,40.9623748 30.7602532,40.9625315 L10.675865,40.9625315 C10.401648,40.9623748 10.1386172,41.0712376 9.94471643,41.2651384 C9.7508157,41.4590391 9.64210954,41.7220699 9.64210954,41.9962869 L9.64210954,41.9962869 Z M11.7096203,43.0300422 L29.7264979,43.0300422 L29.7264979,52.481519 L11.7096203,52.481519 L11.7096203,43.0300422 Z" id="Shape" fill="#4C45B2"></path>
            <path d="M13.6294515,14.8876793 C13.0585242,14.8876793 12.5956962,15.3505073 12.5956962,15.9214346 C12.5956962,16.4923619 13.0585242,16.9551899 13.6294515,16.9551899 L27.8066667,16.9551899 C28.3775939,16.9551899 28.8404219,16.4923619 28.8404219,15.9214346 C28.8404219,15.3505073 28.3775939,14.8876793 27.8066667,14.8876793 L13.6294515,14.8876793 Z" id="Path" fill="#4C45B2"></path>
            <path d="M13.6294515,21.5822785 L27.8066667,21.5822785 C28.3775939,21.5822785 28.8404219,21.1194505 28.8404219,20.5485232 C28.8404219,19.9775959 28.3775939,19.5147679 27.8066667,19.5147679 L13.6294515,19.5147679 C13.0585242,19.5147679 12.5956962,19.9775959 12.5956962,20.5485232 C12.5956962,21.1194505 13.0585242,21.5822785 13.6294515,21.5822785 Z" id="Path" fill="#4C45B2"></path>
            <path d="M13.6294515,26.2093671 L27.8066667,26.2093671 C28.1759919,26.2093671 28.5172624,26.0123345 28.701925,25.6924895 C28.8865877,25.3726445 28.8865877,24.9785792 28.701925,24.6587342 C28.5172624,24.3388892 28.1759919,24.1418565 27.8066667,24.1418565 L13.6294515,24.1418565 C13.0585242,24.1418565 12.5956962,24.6046845 12.5956962,25.1756118 C12.5956962,25.7465391 13.0585242,26.2093671 13.6294515,26.2093671 L13.6294515,26.2093671 Z" id="Path" fill="#4C45B2"></path>
            <path d="M59.6202254,9.78082878 C59.3799955,9.61559783 59.0739399,9.57887872 58.801443,9.68259515 L54.4735934,11.3333252 L52.531707,11.3333252 C51.3589797,8.40302618 48.3729812,3.90301451 40.9279861,2.48672863 C36.6831117,1.6602369 32.3017736,1.86602729 28.153057,3.08676394 L28.153057,0.886128099 C28.152778,0.397046338 27.7565168,0 27.2674353,0 L16.8232763,0 C16.3339971,0 15.9374276,0.39684882 15.9371482,0.886128099 L15.9371482,8.95748919 L14.5193433,8.95748919 C10.809964,8.95318246 7.75023326,11.8611744 7.56602267,15.5659794 L6.17454838,42.723527 C4.97739029,41.8807248 3.41025927,41.7755624 2.11122917,42.4508578 C0.81219908,43.1261532 -0.00205162824,44.4692669 3.8825919e-06,45.9333362 L3.8825919e-06,56.0792497 C-0.001323925,57.6617085 0.948655453,59.0898757 2.40863931,59.7003058 C3.86862318,60.3107358 5.55243418,59.9837757 6.67786914,58.8713128 C7.40800251,59.5927583 8.39185289,59.9992419 9.41828358,60.0039027 L34.6704026,60.0039027 C35.6973062,59.9991286 36.6815487,59.5922695 37.4118298,58.8703001 C38.5370886,59.9829927 40.2208884,60.3102454 41.6810009,59.7000293 C43.1411134,59.0898132 44.0913224,57.6617449 44.0901975,56.0792497 L44.0901975,45.9333362 C44.092201,44.4691825 43.2778059,43.1260372 41.9786347,42.4508304 C40.6794636,41.7756236 39.1122444,41.8809935 37.9151505,42.7240334 L36.5277271,15.565473 C36.3381724,11.8620026 33.2796865,8.95668593 29.5713684,8.95748919 L28.1535634,8.95748919 L28.1535634,4.96282372 C32.1749076,3.68372138 36.4523887,3.43114233 40.596321,4.22809693 C46.6817424,5.38613977 49.3963326,8.79950521 50.5958968,11.3338316 L50.0799171,11.3338316 C49.5906378,11.3341109 49.1940683,11.7306804 49.193789,12.2199597 L49.193789,22.4063819 C49.194691,22.8458457 49.5182463,23.2179343 49.9533274,23.2798511 L49.9533274,51.0283196 C49.5316556,51.0877034 49.2123228,51.4393952 49.193789,51.8648245 L48.8899736,59.0789199 C48.8799044,59.3200967 48.9686598,59.5549435 49.1357244,59.7291762 C49.302789,59.9034089 49.5337021,60.0019465 49.775089,60.0020122 L54.9399499,60.0020122 C55.1812379,60.0022053 55.4121707,59.9039959 55.5794096,59.7300675 C55.7466484,59.5561391 55.8357296,59.3215339 55.826078,59.080439 L55.5222627,51.8663436 C55.5037289,51.4409143 55.1843961,51.0892225 54.7627243,51.0298386 L54.7627243,23.2813701 C55.1985992,23.219782 55.5225538,22.8465864 55.5222627,22.4063819 L55.5222627,15.6480095 L59.2404562,15.122409 C59.6766128,15.0594553 60.0000039,14.6855654 60.0000039,14.244889 L60.0000039,10.510492 C60.0007142,10.2197114 59.8588067,9.94705987 59.6202254,9.78082878 Z M17.7094044,1.7722562 L26.3808008,1.7722562 L26.3808008,3.72426981 C23.4104994,4.96231736 21.3020209,6.79229847 20.3419644,8.95748919 L17.7088981,8.95748919 L17.7094044,1.7722562 Z M3.92428936,58.2312751 C2.73633692,58.22988 1.77365911,57.2672022 1.77226398,56.0792497 L1.77226398,45.9333362 C1.77226398,44.7448054 2.73575858,43.7813108 3.92428936,43.7813108 C5.11282015,43.7813108 6.07631475,44.7448054 6.07631475,45.9333362 L6.07631475,56.0792497 C6.07491962,57.2672022 5.1122418,58.22988 3.92428936,58.2312751 L3.92428936,58.2312751 Z M40.1659159,43.7813108 C41.3538684,43.7827059 42.3165462,44.7453837 42.3179413,45.9333362 L42.3179413,56.0792497 C42.3179413,57.2677805 41.3544467,58.2312751 40.1659159,58.2312751 C38.9773851,58.2312751 38.0138905,57.2677805 38.0138905,56.0792497 L38.0138905,45.9333362 C38.0152857,44.7453837 38.9779635,43.7827059 40.1659159,43.7813108 Z M34.7574964,15.6561113 L36.280624,45.4203946 C36.2570963,45.5903893 36.2445801,45.7617269 36.2431534,45.9333362 L36.2431534,56.0792497 C36.2436807,56.4940621 36.3101688,56.9061516 36.440127,57.3000811 C36.0393793,57.8819848 35.378469,58.2300415 34.6719217,58.2312751 L9.41828358,58.2312751 C8.71241089,58.2294842 8.05227167,57.8817238 7.65159733,57.3005874 C7.78155835,56.9064844 7.84804584,56.4942278 7.84857095,56.0792497 L7.84857095,45.9333362 C7.84720942,45.7610338 7.8345231,45.5890072 7.81059403,45.4183691 L9.33574708,15.6550985 C9.47345396,12.8943826 11.7531706,10.7273931 14.5173178,10.7297435 L16.8111237,10.7297435 L16.8232763,10.7297435 L27.2674353,10.7297435 L27.2795879,10.7297435 L29.5713684,10.7297435 C32.3358055,10.7297435 34.6157027,12.895313 34.7574964,15.6561113 L34.7574964,15.6561113 Z M22.3425885,8.95748919 C23.3514774,7.50103337 24.7513059,6.35922968 26.3808008,5.66362445 L26.3808008,8.95748919 L22.3425885,8.95748919 Z M51.7245708,51.0156606 L51.7245708,23.29251 L52.9904681,23.29251 L52.9904681,51.0156606 L51.7245708,51.0156606 Z M53.7500065,14.8763185 L53.7500065,21.5202538 L50.9650325,21.5202538 L50.9650325,13.1055814 L53.7500065,13.1055814 L53.7500065,14.8763185 Z M50.7012195,58.229756 L50.929081,52.7879168 L53.7869707,52.7879168 L54.0148322,58.229756 L50.7012195,58.229756 Z M58.2312829,13.4752234 L55.5232754,13.8580308 L55.5232754,12.8301222 L58.2312829,11.79715 L58.2312829,13.4752234 Z" id="Shape" fill="#676767"></path>
        </g>
    </g>
</svg>