<?xml version="1.0" encoding="UTF-8"?>
<svg width="32px" height="32px" viewBox="0 0 32 32" version="1.1" xmlns="http://www.w3.org/2000/svg" xmlns:xlink="http://www.w3.org/1999/xlink">
    <!-- Generator: Sketch 64 (93537) - https://sketch.com -->
    <title>list-h</title>
    <desc>Created with Sketch.</desc>
    <g id="list-h" stroke="none" stroke-width="1" fill="none" fill-rule="evenodd">
        <g id="024-to-do-list" transform="translate(5.000000, 4.000000)" fill="#6C63FF" fill-rule="nonzero">
            <path d="M18.7498169,-1.33226763e-15 L2.71875,-1.33226763e-15 C1.21966552,-1.33226763e-15 0,1.21966552 0,2.71875 L0,20.0623169 C0,20.8377685 0.630798328,21.4685669 1.40625,21.4685669 L7.56243895,21.4685669 C7.82135011,21.4685669 8.03118895,21.258728 8.03118895,20.9998169 C8.03118895,20.7409058 7.82135011,20.5310669 7.56243895,20.5310669 L1.40625,20.5310669 C1.14770508,20.5310669 0.9375,20.3208618 0.9375,20.0623169 L0.9375,2.71875 C0.9375,1.73657227 1.73657227,0.9375 2.71875,0.9375 L16.6984863,0.9375 C16.2833862,1.41503906 16.0310669,2.03778075 16.0310669,2.71875 L16.0310669,17.8249512 C16.0310669,18.2574463 15.6793213,18.6091919 15.2468262,18.6091919 C14.9088135,18.6091919 14.6098022,18.3936768 14.5026855,18.0730591 L13.7962646,15.9534302 C13.5968628,15.3550415 13.0389404,14.953125 12.4083252,14.953125 C11.6015625,14.953125 10.9453125,15.609375 10.9453125,16.4159546 L10.9453125,16.7810669 L8.51568605,16.7810669 C8.25677489,16.7810669 8.04693605,16.9910888 8.04693605,17.2498169 C8.04693605,17.508728 8.25677489,17.7185669 8.51568605,17.7185669 L10.9453125,17.7185669 L10.9453125,20.0505982 C10.9453125,20.7427368 11.0802612,21.4176636 11.3464966,22.0563354 L12.0360718,23.7114258 C12.111145,23.8914185 12.2852783,24 12.4689331,24 C12.5289917,24 12.5901489,23.9884643 12.6489258,23.9639282 C12.8880615,23.8643189 13.0010376,23.5898438 12.9014282,23.3508911 L12.211853,21.6958008 C11.9935913,21.171936 11.8828125,20.6184082 11.8828125,20.0507812 L11.8828125,16.4161377 C11.8828125,16.1262817 12.1184693,15.890625 12.4083252,15.890625 C12.6348267,15.890625 12.8353271,16.0349121 12.9069214,16.2498779 L13.6133423,18.3695068 C13.8480835,19.0735474 14.5045166,19.5466919 15.2468262,19.5466919 C16.196228,19.5466919 16.9685669,18.774353 16.9685669,17.8249512 L16.9685669,9.78826903 L17.5949707,10.4133911 C18.7126465,11.5288696 19.328064,13.0129395 19.328064,14.5918579 L19.328064,19.574707 C19.328064,20.8654175 19.0356445,22.1640015 18.482666,23.3302002 C18.3717041,23.5640259 18.4714966,23.8436279 18.7053223,23.9545898 C18.9391479,24.0655518 19.21875,23.9659424 19.3297119,23.7319336 C19.9418335,22.4410401 20.265564,21.003479 20.265564,19.574707 L20.265564,14.5918579 C20.265564,12.7620849 19.5523682,11.0425415 18.2572632,9.74981691 L16.9685669,8.463501 L16.9685669,8.015625 L20.0623169,8.015625 C20.8377685,8.015625 21.4685669,7.38482667 21.4685669,6.609375 L21.4685669,2.71875 C21.4685669,1.21966552 20.2490845,-1.33226763e-15 18.7498169,-1.33226763e-15 Z M20.5310669,6.609375 C20.5310669,6.86773683 20.3208618,7.078125 20.0623169,7.078125 L16.9685669,7.078125 L16.9685669,2.71875 C16.9685669,1.73657227 17.7676392,0.9375 18.7498169,0.9375 C19.7319946,0.9375 20.5310669,1.73657227 20.5310669,2.71875 L20.5310669,6.609375 Z" id="Shape"></path>
            <path d="M9.609375,20.5310669 C9.48596194,20.5310669 9.36511228,20.5812378 9.27795413,20.668396 C9.19079587,20.7557373 9.140625,20.8765869 9.140625,20.9998169 C9.140625,21.12323 9.19079587,21.2440796 9.27795413,21.3312378 C9.36511228,21.418396 9.48596194,21.4685669 9.609375,21.4685669 C9.73260497,21.4685669 9.85345458,21.418396 9.94079587,21.3312378 C10.0279541,21.2440796 10.078125,21.12323 10.078125,20.9998169 C10.078125,20.8765869 10.0279541,20.7557373 9.94079587,20.668396 C9.85345458,20.5812378 9.73260497,20.5310669 9.609375,20.5310669 Z" id="Path"></path>
            <path d="M6.45318605,3.46875 C6.45318605,2.95184325 6.03259275,2.53125 5.51568605,2.53125 L3.45318605,2.53125 C2.9360962,2.53125 2.51568605,2.95184325 2.51568605,3.46875 L2.51568605,5.53125 C2.51568605,6.04815675 2.9360962,6.46875 3.45318605,6.46875 L5.51568605,6.46875 C6.03259275,6.46875 6.45318605,6.04815675 6.45318605,5.53125 L6.45318605,3.46875 Z M5.51568605,5.53125 L3.45318605,5.53125 L3.45318605,3.46875 L5.51568605,3.46875 L5.51623538,5.53125 C5.51623538,5.53125 5.51605223,5.53125 5.51568605,5.53125 Z" id="Shape"></path>
            <path d="M6.45318605,9.09375 C6.45318605,8.57684325 6.03259275,8.15625 5.51568605,8.15625 L3.45318605,8.15625 C2.9360962,8.15625 2.51568605,8.57684325 2.51568605,9.09375 L2.51568605,11.15625 C2.51568605,11.6731568 2.9360962,12.09375 3.45318605,12.09375 L5.51568605,12.09375 C6.03259275,12.09375 6.45318605,11.6731568 6.45318605,11.15625 L6.45318605,9.09375 Z M5.51568605,11.15625 L3.45318605,11.15625 L3.45318605,9.09375 L5.51568605,9.09375 L5.51623538,11.15625 C5.51623538,11.15625 5.51605223,11.15625 5.51568605,11.15625 Z" id="Shape"></path>
            <path d="M5.51568605,13.78125 L3.45318605,13.78125 C2.9360962,13.78125 2.51568605,14.2016602 2.51568605,14.71875 L2.51568605,16.7810669 C2.51568605,17.2981567 2.9360962,17.7185669 3.45318605,17.7185669 L5.51568605,17.7185669 C6.03259275,17.7185669 6.45318605,17.2981567 6.45318605,16.7810669 L6.45318605,14.71875 C6.45318605,14.2016602 6.03259275,13.78125 5.51568605,13.78125 Z M5.51568605,16.7810669 L3.45318605,16.7810669 L3.45318605,14.71875 L5.51568605,14.71875 L5.51623538,16.7810669 C5.51623538,16.7810669 5.51605223,16.7810669 5.51568605,16.7810669 Z" id="Shape"></path>
            <path d="M13.890564,6.46875 C14.1494751,6.46875 14.359314,6.25891116 14.359314,6 C14.359314,5.74108884 14.1494751,5.53125 13.890564,5.53125 L10.6591186,5.53125 C10.4002075,5.53125 10.1903686,5.74108884 10.1903686,6 C10.1903686,6.25891116 10.4002075,6.46875 10.6591186,6.46875 L13.890564,6.46875 Z" id="Path"></path>
            <path d="M8.51568605,6.46875 C8.63909911,6.46875 8.75994872,6.41857912 8.84710692,6.33142088 C8.93426512,6.24426272 8.98443605,6.12322997 8.98443605,6 C8.98443605,5.87677003 8.93426512,5.75573728 8.84710692,5.66857912 C8.75994872,5.58142088 8.63909911,5.53125 8.51568605,5.53125 C8.39190675,5.53125 8.27142333,5.58142088 8.18426512,5.66857912 C8.09674073,5.75573728 8.04693605,5.87677003 8.04693605,6 C8.04693605,6.12322997 8.09674073,6.24426272 8.18426512,6.33142088 C8.27142333,6.41857912 8.39190675,6.46875 8.51568605,6.46875 Z" id="Path"></path>
            <path d="M8.51550291,12.09375 L13.890564,12.09375 C14.1494751,12.09375 14.359314,11.8839112 14.359314,11.625 C14.359314,11.3660888 14.1494751,11.15625 13.890564,11.15625 L8.51550291,11.15625 C8.25677489,11.15625 8.04675291,11.3660888 8.04675291,11.625 C8.04675291,11.8839112 8.25677489,12.09375 8.51550291,12.09375 L8.51550291,12.09375 Z" id="Path"></path>
        </g>
    </g>
</svg>