<svg xmlns="http://www.w3.org/2000/svg" width="12.63" height="12.63" viewBox="0 0 12.63 12.63">
  <path id="Icon_material-info-outline" data-name="Icon material-info-outline" d="M6.517,10.306H7.78V6.517H6.517ZM7.148.833a6.315,6.315,0,1,0,6.315,6.315A6.317,6.317,0,0,0,7.148.833Zm0,11.367A5.052,5.052,0,1,1,12.2,7.148,5.059,5.059,0,0,1,7.148,12.2ZM6.517,5.254H7.78V3.991H6.517Z" transform="translate(-0.833 -0.833)" fill="#a3a3a3"/>
</svg>
